(module CSM-7X-DU (layer F.Cu) (tedit 0)
  (descr "<b>SMD CRYSTAL</b><p>\nSource: www.ecsxtal.com .. Crystal 3.6864MHz CSM_7X_DU.PDF")
  (fp_text reference CRYSTAL (at -7.6288 -2.5334) (layer F.SilkS)
    (effects (font (size 1.2065 1.2065) (thickness 0.1016)) (justify left bottom))
  )
  (fp_text value 16Mhz (at -7.6288 4.3114) (layer F.Fab)
    (effects (font (size 1.2065 1.2065) (thickness 0.1016)) (justify left bottom))
  )
  (fp_line (start -5.575 -2.3) (end -2.725 -2.3) (layer F.Fab) (width 0.2032))
  (fp_line (start -2.725 -2.3) (end 2.75 -2.3) (layer F.Fab) (width 0.2032))
  (fp_line (start 2.75 -2.3) (end 5.55 -2.3) (layer F.Fab) (width 0.2032))
  (fp_line (start 5.55 -2.3) (end 5.55 2.3) (layer F.Fab) (width 0.2032))
  (fp_line (start 5.55 2.3) (end -2.75 2.3) (layer F.Fab) (width 0.2032))
  (fp_line (start -2.75 2.3) (end -5.575 2.3) (layer F.Fab) (width 0.2032))
  (fp_line (start -5.575 2.3) (end -5.575 -2.3) (layer F.Fab) (width 0.2032))
  (fp_arc (start -2.7375 0) (end -2.75 2.3) (angle 180) (layer F.Fab) (width 0.2032))
  (fp_arc (start 2.7375 0) (end 2.75 -2.3) (angle 180) (layer F.Fab) (width 0.2032))
  (pad 1 smd rect (at -4.75 0) (size 5.5 2) (layers F.Cu F.Paste F.Mask)
    (solder_mask_margin 0.1016))
  (pad 2 smd rect (at 4.75 0) (size 5.5 2) (layers F.Cu F.Paste F.Mask)
    (solder_mask_margin 0.1016))
)
