EESchema Schematic File Version 4
EELAYER 30 0
EELAYER END
$Descr A4 11693 8268
encoding utf-8
Sheet 1 1
Title ""
Date ""
Rev ""
Comp ""
Comment1 ""
Comment2 ""
Comment3 ""
Comment4 ""
$EndDescr
Wire Wire Line
	5600 2900 5400 2900
Wire Wire Line
	5400 2900 5100 2900
Wire Wire Line
	5100 3300 5400 3300
Wire Wire Line
	5400 3300 5400 2900
Wire Wire Line
	5100 2500 5400 2500
Wire Wire Line
	5400 2500 5400 2900
Connection ~ 5400 2900
Text Label 5600 2900 0    10   ~ 0
VCC
Wire Wire Line
	3100 3600 3300 3600
Text Label 3100 3600 0    10   ~ 0
VCC
Wire Wire Line
	7600 3900 7800 3900
Wire Wire Line
	7800 3900 7800 3600
Wire Wire Line
	7800 3600 8600 3600
Text Label 7600 3900 0    10   ~ 0
VCC
Wire Wire Line
	5000 4900 4800 4900
Wire Wire Line
	4800 4900 4800 5000
Wire Wire Line
	4800 5000 4600 5000
Text Label 5000 4900 0    10   ~ 0
VCC
Wire Wire Line
	5000 5500 4800 5500
Wire Wire Line
	4800 5500 4800 5600
Wire Wire Line
	4800 5600 4600 5600
Text Label 5000 5500 0    10   ~ 0
VCC
Wire Wire Line
	4800 2900 4500 2900
Wire Wire Line
	4500 2900 4300 2900
Wire Wire Line
	4800 2500 4500 2500
Wire Wire Line
	4500 2500 4500 2900
Wire Wire Line
	4800 3300 4500 3300
Wire Wire Line
	4500 3300 4500 2900
Connection ~ 4500 2900
Text Label 4800 2900 0    10   ~ 0
GND
Wire Wire Line
	6200 3300 6100 3300
Text Label 6200 3300 0    10   ~ 0
GND
Wire Wire Line
	4100 4200 3900 4200
Wire Wire Line
	3900 4200 3900 4500
Wire Wire Line
	3900 4500 3100 4500
Text Label 4100 4200 0    10   ~ 0
GND
Wire Wire Line
	5000 4800 4800 4800
Wire Wire Line
	4800 4800 4800 4700
Wire Wire Line
	4800 4700 4600 4700
Text Label 5000 4800 0    10   ~ 0
GND
Wire Wire Line
	5000 5400 4800 5400
Wire Wire Line
	4800 5400 4800 5300
Wire Wire Line
	4800 5300 4600 5300
Text Label 5000 5400 0    10   ~ 0
GND
Wire Wire Line
	6500 3300 6700 3300
Wire Wire Line
	7600 4100 8000 4100
Wire Wire Line
	8000 4100 8000 4200
Wire Wire Line
	8000 4200 8600 4200
Text Label 8600 4200 0    70   ~ 0
MISO
Wire Wire Line
	6700 5100 6400 5100
Text Label 6400 5100 2    70   ~ 0
MISO
Wire Wire Line
	4100 3900 3900 3900
Wire Wire Line
	3900 3900 3900 3600
Wire Wire Line
	3900 3600 3700 3600
Wire Wire Line
	3900 3600 3900 3400
Connection ~ 3900 3600
Text Label 3900 3400 1    70   ~ 0
RST
Wire Wire Line
	3400 2900 3500 2900
Text Label 3500 2900 0    70   ~ 0
RST
Wire Wire Line
	4100 4000 3700 4000
Wire Wire Line
	3700 4000 3700 3900
Wire Wire Line
	3700 3900 3100 3900
Text Label 3100 3900 2    70   ~ 0
ADC3
Wire Wire Line
	6700 4800 6400 4800
Text Label 6400 4800 2    70   ~ 0
ADC3
Wire Wire Line
	4100 4100 3700 4100
Wire Wire Line
	3700 4100 3700 4200
Wire Wire Line
	3700 4200 3100 4200
Text Label 3100 4200 2    70   ~ 0
ADC2
Wire Wire Line
	6700 4900 6400 4900
Text Label 6400 4900 2    70   ~ 0
ADC2
Wire Wire Line
	7600 4200 7800 4200
Wire Wire Line
	7800 4200 7800 4500
Wire Wire Line
	7800 4500 8600 4500
Text Label 8600 4500 0    70   ~ 0
MOSI
Wire Wire Line
	6700 5200 6400 5200
Text Label 6400 5200 2    70   ~ 0
MOSI
Wire Wire Line
	7600 4000 8000 4000
Wire Wire Line
	8000 4000 8000 3900
Wire Wire Line
	8000 3900 8600 3900
Text Label 8600 3900 0    70   ~ 0
SCK
Wire Wire Line
	7100 3300 7300 3300
Text Label 7300 3300 0    70   ~ 0
SCK
Wire Wire Line
	6700 5000 6400 5000
Text Label 6400 5000 2    70   ~ 0
SCK
$Comp
L hello-eagle-import:ATTINY45SI UNK1
U 1 1 843311E9
P 6200 4100
F 0 "UNK1" H 6400 3800 59  0000 L BNN
F 1 "ATTINY45SI" H 6200 4100 50  0001 C CNN
F 2 "hello:SOIC8" H 6200 4100 50  0001 C CNN
F 3 "" H 6200 4100 50  0001 C CNN
	1    6200 4100
	1    0    0    -1  
$EndComp
$Comp
L hello-eagle-import:RES-US1206FAB R1
U 1 1 E0EA0F9E
P 3500 3600
F 0 "R1" H 3350 3659 59  0000 L BNN
F 1 "10K" H 3350 3470 59  0000 L BNN
F 2 "hello:R1206FAB" H 3500 3600 50  0001 C CNN
F 3 "" H 3500 3600 50  0001 C CNN
	1    3500 3600
	-1   0    0    1   
$EndComp
$Comp
L hello-eagle-import:VCC #P+02
U 1 1 534F544F
P 8700 3600
F 0 "#P+02" H 8700 3600 50  0001 C CNN
F 1 "VCC" V 8600 3500 59  0000 L BNN
F 2 "" H 8700 3600 50  0001 C CNN
F 3 "" H 8700 3600 50  0001 C CNN
	1    8700 3600
	0    1    1    0   
$EndComp
$Comp
L hello-eagle-import:GND #GND04
U 1 1 6AE2E73F
P 3000 4500
F 0 "#GND04" H 3000 4500 50  0001 C CNN
F 1 "GND" H 2900 4400 59  0000 L BNN
F 2 "" H 3000 4500 50  0001 C CNN
F 3 "" H 3000 4500 50  0001 C CNN
	1    3000 4500
	0    1    1    0   
$EndComp
$Comp
L hello-eagle-import:VCC #P+06
U 1 1 99C0FA91
P 3000 3600
F 0 "#P+06" H 3000 3600 50  0001 C CNN
F 1 "5V" V 2900 3500 59  0000 L BNN
F 2 "" H 3000 3600 50  0001 C CNN
F 3 "" H 3000 3600 50  0001 C CNN
	1    3000 3600
	0    -1   -1   0   
$EndComp
$Comp
L hello-eagle-import:VCC #P+07
U 1 1 33AD565B
P 5700 2900
F 0 "#P+07" H 5700 2900 50  0001 C CNN
F 1 "5V" V 5600 2800 59  0000 L BNN
F 2 "" H 5700 2900 50  0001 C CNN
F 3 "" H 5700 2900 50  0001 C CNN
	1    5700 2900
	0    1    1    0   
$EndComp
$Comp
L hello-eagle-import:GND #GND07
U 1 1 2E923FEC
P 4200 2900
F 0 "#GND07" H 4200 2900 50  0001 C CNN
F 1 "GND" H 4100 2800 59  0000 L BNN
F 2 "" H 4200 2900 50  0001 C CNN
F 3 "" H 4200 2900 50  0001 C CNN
	1    4200 2900
	0    1    1    0   
$EndComp
$Comp
L hello-eagle-import:RES-US1206FAB R2
U 1 1 8584CDB4
P 6900 3300
F 0 "R2" H 6750 3359 59  0000 L BNN
F 1 "499" H 6750 3170 59  0000 L BNN
F 2 "hello:R1206FAB" H 6900 3300 50  0001 C CNN
F 3 "" H 6900 3300 50  0001 C CNN
	1    6900 3300
	-1   0    0    1   
$EndComp
$Comp
L hello-eagle-import:GND #GND08
U 1 1 D5805D3F
P 6000 3300
F 0 "#GND08" H 6000 3300 50  0001 C CNN
F 1 "GND" H 5900 3200 59  0000 L BNN
F 2 "" H 6000 3300 50  0001 C CNN
F 3 "" H 6000 3300 50  0001 C CNN
	1    6000 3300
	0    1    1    0   
$EndComp
$Comp
L hello-eagle-import:LEDFAB1206 LED1
U 1 1 21043F5B
P 6300 3300
F 0 "LED1" V 6440 3220 59  0000 L BNN
F 1 "YELLOW" V 6525 3220 59  0000 L BNN
F 2 "hello:LED1206FAB" H 6300 3300 50  0001 C CNN
F 3 "" H 6300 3300 50  0001 C CNN
	1    6300 3300
	0    1    1    0   
$EndComp
$Comp
L hello-eagle-import:CAP1206 C3
U 1 1 8F8E6998
P 4900 2900
F 0 "C3" H 4960 3015 59  0000 L BNN
F 1 "100nF" H 4960 2815 59  0000 L BNN
F 2 "hello:1206" H 4900 2900 50  0001 C CNN
F 3 "" H 4900 2900 50  0001 C CNN
	1    4900 2900
	0    1    1    0   
$EndComp
$Comp
L hello-eagle-import:CAP1206 C1
U 1 1 EF84912C
P 4900 3300
F 0 "C1" H 4960 3415 59  0000 L BNN
F 1 "1uF" H 4960 3215 59  0000 L BNN
F 2 "hello:1206" H 4900 3300 50  0001 C CNN
F 3 "" H 4900 3300 50  0001 C CNN
	1    4900 3300
	0    1    1    0   
$EndComp
$Comp
L hello-eagle-import:CAP1206 C2
U 1 1 03B11DE5
P 4900 2500
F 0 "C2" H 4960 2615 59  0000 L BNN
F 1 "10uF" H 4960 2415 59  0000 L BNN
F 2 "hello:1206" H 4900 2500 50  0001 C CNN
F 3 "" H 4900 2500 50  0001 C CNN
	1    4900 2500
	0    1    1    0   
$EndComp
$Comp
L hello-eagle-import:M02 POWER_1
U 1 1 176E774F
P 5300 4800
F 0 "POWER_1" H 5200 5030 59  0000 L BNN
F 1 "M02" H 5200 4600 59  0000 L BNN
F 2 "hello:02P" H 5300 4800 50  0001 C CNN
F 3 "" H 5300 4800 50  0001 C CNN
	1    5300 4800
	-1   0    0    1   
$EndComp
$Comp
L hello-eagle-import:M02 POWER_2
U 1 1 79F26ED8
P 5300 5400
F 0 "POWER_2" H 5200 5630 59  0000 L BNN
F 1 "M02" H 5200 5200 59  0000 L BNN
F 2 "hello:02P" H 5300 5400 50  0001 C CNN
F 3 "" H 5300 5400 50  0001 C CNN
	1    5300 5400
	-1   0    0    1   
$EndComp
$Comp
L hello-eagle-import:GND #GND01
U 1 1 A7315E89
P 4500 4700
F 0 "#GND01" H 4500 4700 50  0001 C CNN
F 1 "GND" H 4400 4600 59  0000 L BNN
F 2 "" H 4500 4700 50  0001 C CNN
F 3 "" H 4500 4700 50  0001 C CNN
	1    4500 4700
	0    1    1    0   
$EndComp
$Comp
L hello-eagle-import:GND #GND02
U 1 1 C92C8F3B
P 4500 5300
F 0 "#GND02" H 4500 5300 50  0001 C CNN
F 1 "GND" H 4400 5200 59  0000 L BNN
F 2 "" H 4500 5300 50  0001 C CNN
F 3 "" H 4500 5300 50  0001 C CNN
	1    4500 5300
	0    1    1    0   
$EndComp
$Comp
L hello-eagle-import:VCC #P+01
U 1 1 822CDB14
P 4500 5000
F 0 "#P+01" H 4500 5000 50  0001 C CNN
F 1 "5V" V 4400 4900 59  0000 L BNN
F 2 "" H 4500 5000 50  0001 C CNN
F 3 "" H 4500 5000 50  0001 C CNN
	1    4500 5000
	0    -1   -1   0   
$EndComp
$Comp
L hello-eagle-import:VCC #P+03
U 1 1 85FCBD29
P 4500 5600
F 0 "#P+03" H 4500 5600 50  0001 C CNN
F 1 "5V" V 4400 5500 59  0000 L BNN
F 2 "" H 4500 5600 50  0001 C CNN
F 3 "" H 4500 5600 50  0001 C CNN
	1    4500 5600
	0    -1   -1   0   
$EndComp
$Comp
L hello-eagle-import:M05 M5
U 1 1 858D667E
P 7000 5000
F 0 "M5" H 6900 5330 59  0000 L BNN
F 1 "M05" H 6900 4600 59  0000 L BNN
F 2 "hello:05P" H 7000 5000 50  0001 C CNN
F 3 "" H 7000 5000 50  0001 C CNN
	1    7000 5000
	-1   0    0    1   
$EndComp
$Comp
L hello-eagle-import:M01PTH_LONGPAD RST1
U 1 1 4D8912F9
P 3100 2900
F 0 "RST1" H 3000 3030 59  0000 L BNN
F 1 "M01" H 3000 2700 59  0000 L BNN
F 2 "hello:1X01_LONGPAD" H 3100 2900 50  0001 C CNN
F 3 "" H 3100 2900 50  0001 C CNN
	1    3100 2900
	1    0    0    -1  
$EndComp
$EndSCHEMATC
