(export (version D)
  (design
    (source D:\Studium\MedienInformatik\Semester5\DigitalFabrication\Project\patrick.klenner\docs\kiCad_Project\FoDF_W07\FoDF_w07\FoDF_w07.sch)
    (date "12.11.2021 11:32:16")
    (tool "Eeschema (5.1.10)-1")
    (sheet (number 1) (name /) (tstamps /)
      (title_block
        (title)
        (company)
        (rev)
        (date)
        (source FoDF_w07.sch)
        (comment (number 1) (value ""))
        (comment (number 2) (value ""))
        (comment (number 3) (value ""))
        (comment (number 4) (value "")))))
  (components
    (comp (ref U1)
      (value ATtiny44A-SSU)
      (footprint Package_SO:SOIC-14_3.9x8.7mm_P1.27mm)
      (datasheet http://ww1.microchip.com/downloads/en/DeviceDoc/doc8183.pdf)
      (libsource (lib fab) (part Microcontroller_ATtiny44A-SSU) (description "AVR AVR® ATtiny Microcontroller IC 8-Bit 20MHz 4KB (2K x 16) FLASH 14-SOIC"))
      (sheetpath (names /) (tstamps /))
      (tstamp 618E4294))
    (comp (ref C1)
      (value 1uF)
      (footprint fab:C_1206)
      (libsource (lib fab) (part C) (description "Unpolarized capacitor"))
      (sheetpath (names /) (tstamps /))
      (tstamp 618E5EBD))
    (comp (ref SW1)
      (value BUTTON_B3SN)
      (footprint fab:Button_Omron_B3SN_6x6mm)
      (datasheet https://omronfs.omron.com/en_US/ecb/products/pdf/en-b3sn.pdf)
      (libsource (lib fab) (part BUTTON_B3SN) (description "Push button switch, Omron B3SN, Sealed Tactile Switch (SMT), SPST-NO Top Actuated Surface Mount"))
      (sheetpath (names /) (tstamps /))
      (tstamp 618E6E57))
    (comp (ref R1)
      (value 10K)
      (footprint fab:R_1206)
      (datasheet ~)
      (libsource (lib fab) (part R) (description Resistor))
      (sheetpath (names /) (tstamps /))
      (tstamp 618E882D))
    (comp (ref I/O1)
      (value Conn_Header_JST_PH_1x04_P2mm_Vertical_SMD)
      (footprint fab:Header_JST_PH_1x04_P2mm_Vertical_SMD)
      (datasheet https://www.jst-mfg.com/product/pdf/eng/ePH.pdf)
      (libsource (lib fab) (part Conn_Header_JST_PH_1x04_P2mm_Vertical_SMD) (description "Male JST PH 4 pin connector"))
      (sheetpath (names /) (tstamps /))
      (tstamp 618EC9C5))
    (comp (ref Power1)
      (value Conn_Header_JST_PH_1x02_P2mm_Vertical_SMD)
      (footprint fab:Header_JST_PH_1x02_P2mm_Vertical_SMD)
      (datasheet https://www.jst-mfg.com/product/pdf/eng/ePH.pdf)
      (libsource (lib fab) (part Conn_Header_JST_PH_1x02_P2mm_Vertical_SMD) (description "Male JST PH 2 pin connector"))
      (sheetpath (names /) (tstamps /))
      (tstamp 618E9837))
    (comp (ref LED1)
      (value Green)
      (footprint fab:LED_1206)
      (datasheet https://optoelectronics.liteon.com/upload/download/DS-22-98-0002/LTST-C150CKT.pdf)
      (libsource (lib fab) (part LED) (description "Light emitting diode, Lite-On Inc. LTST"))
      (sheetpath (names /) (tstamps /))
      (tstamp 618F1C3D))
    (comp (ref R2)
      (value 499)
      (footprint fab:R_1206)
      (datasheet ~)
      (libsource (lib fab) (part R) (description Resistor))
      (sheetpath (names /) (tstamps /))
      (tstamp 61918A49)))
  (libparts
    (libpart (lib fab) (part BUTTON_B3SN)
      (description "Push button switch, Omron B3SN, Sealed Tactile Switch (SMT), SPST-NO Top Actuated Surface Mount")
      (docs https://omronfs.omron.com/en_US/ecb/products/pdf/en-b3sn.pdf)
      (footprints
        (fp Button_*))
      (fields
        (field (name Reference) SW)
        (field (name Value) BUTTON_B3SN)
        (field (name Footprint) fab:Button_Omron_B3SN_6x6mm))
      (pins
        (pin (num 1) (name 1) (type passive))
        (pin (num 2) (name 2) (type passive))))
    (libpart (lib fab) (part C)
      (description "Unpolarized capacitor")
      (footprints
        (fp C_*))
      (fields
        (field (name Reference) C)
        (field (name Value) C)
        (field (name Footprint) fab:C_1206))
      (pins
        (pin (num 1) (name ~) (type passive))
        (pin (num 2) (name ~) (type passive))))
    (libpart (lib fab) (part Conn_Header_JST_PH_1x02_P2mm_Vertical_SMD)
      (description "Male JST PH 2 pin connector")
      (docs https://www.jst-mfg.com/product/pdf/eng/ePH.pdf)
      (footprints
        (fp fab:*Header_SMD_01x??_*))
      (fields
        (field (name Reference) J)
        (field (name Value) Conn_Header_JST_PH_1x02_P2mm_Vertical_SMD)
        (field (name Footprint) fab:Header_JST_PH_1x02_P2mm_Vertical_SMD))
      (pins
        (pin (num 1) (name ~) (type passive))
        (pin (num 2) (name ~) (type passive))))
    (libpart (lib fab) (part Conn_Header_JST_PH_1x04_P2mm_Vertical_SMD)
      (description "Male JST PH 4 pin connector")
      (docs https://www.jst-mfg.com/product/pdf/eng/ePH.pdf)
      (footprints
        (fp fab:*Header_SMD_01x??_*))
      (fields
        (field (name Reference) J)
        (field (name Value) Conn_Header_JST_PH_1x04_P2mm_Vertical_SMD)
        (field (name Footprint) fab:Header_JST_PH_1x04_P2mm_Vertical_SMD))
      (pins
        (pin (num 1) (name ~) (type passive))
        (pin (num 2) (name ~) (type passive))
        (pin (num 3) (name ~) (type passive))
        (pin (num 4) (name ~) (type passive))))
    (libpart (lib fab) (part LED)
      (description "Light emitting diode, Lite-On Inc. LTST")
      (docs https://optoelectronics.liteon.com/upload/download/DS-22-98-0002/LTST-C150CKT.pdf)
      (footprints
        (fp LED_*))
      (fields
        (field (name Reference) D)
        (field (name Value) LED)
        (field (name Footprint) fab:LED_1206))
      (pins
        (pin (num 1) (name K) (type passive))
        (pin (num 2) (name A) (type passive))))
    (libpart (lib fab) (part Microcontroller_ATtiny44A-SSU)
      (description "AVR AVR® ATtiny Microcontroller IC 8-Bit 20MHz 4KB (2K x 16) FLASH 14-SOIC")
      (docs http://ww1.microchip.com/downloads/en/DeviceDoc/doc8183.pdf)
      (footprints
        (fp SOIC*14*P1.27mm*))
      (fields
        (field (name Reference) U)
        (field (name Value) Microcontroller_ATtiny44A-SSU)
        (field (name Footprint) fab:SOIC-14_3.9x8.7mm_P1.27mm))
      (pins
        (pin (num 1) (name VCC) (type power_in))
        (pin (num 2) (name XTAL1/PB0) (type BiDi))
        (pin (num 3) (name XTAL2/PB1) (type BiDi))
        (pin (num 4) (name ~RESET~/PB3) (type BiDi))
        (pin (num 5) (name PB2) (type BiDi))
        (pin (num 6) (name PA7) (type BiDi))
        (pin (num 7) (name MOSI/PA6) (type BiDi))
        (pin (num 8) (name MISO/PA5) (type BiDi))
        (pin (num 9) (name PA4) (type BiDi))
        (pin (num 10) (name PA3) (type BiDi))
        (pin (num 11) (name PA2) (type BiDi))
        (pin (num 12) (name PA1) (type BiDi))
        (pin (num 13) (name AREF/PA0) (type BiDi))
        (pin (num 14) (name GND) (type power_in))))
    (libpart (lib fab) (part R)
      (description Resistor)
      (docs ~)
      (footprints
        (fp R_*))
      (fields
        (field (name Reference) R)
        (field (name Value) R)
        (field (name Footprint) fab:R_1206))
      (pins
        (pin (num 1) (name ~) (type passive))
        (pin (num 2) (name ~) (type passive)))))
  (libraries
    (library (logical fab)
      (uri D:\kiCad\kiCad_Libraries\fab\fab.lib)))
  (nets
    (net (code 1) (name +5V)
      (node (ref U1) (pin 1))
      (node (ref U1) (pin 13))
      (node (ref Power1) (pin 2))
      (node (ref C1) (pin 2))
      (node (ref R1) (pin 1)))
    (net (code 2) (name "Net-(LED1-Pad2)")
      (node (ref U1) (pin 12))
      (node (ref LED1) (pin 2)))
    (net (code 3) (name "Net-(LED1-Pad1)")
      (node (ref LED1) (pin 1))
      (node (ref R2) (pin 1)))
    (net (code 4) (name GND)
      (node (ref U1) (pin 14))
      (node (ref Power1) (pin 1))
      (node (ref C1) (pin 1))
      (node (ref SW1) (pin 2))
      (node (ref R2) (pin 2)))
    (net (code 5) (name "Net-(SW1-Pad1)")
      (node (ref SW1) (pin 1))
      (node (ref U1) (pin 6)))
    (net (code 6) (name RST)
      (node (ref R1) (pin 2))
      (node (ref U1) (pin 4)))
    (net (code 7) (name PA6)
      (node (ref U1) (pin 7))
      (node (ref I/O1) (pin 1)))
    (net (code 8) (name PA5)
      (node (ref I/O1) (pin 2))
      (node (ref U1) (pin 8)))
    (net (code 9) (name PA4)
      (node (ref U1) (pin 9))
      (node (ref I/O1) (pin 3)))
    (net (code 10) (name PA3)
      (node (ref I/O1) (pin 4))
      (node (ref U1) (pin 10)))
    (net (code 11) (name "Net-(U1-Pad5)")
      (node (ref U1) (pin 5)))
    (net (code 12) (name "Net-(U1-Pad3)")
      (node (ref U1) (pin 3)))
    (net (code 13) (name "Net-(U1-Pad2)")
      (node (ref U1) (pin 2)))
    (net (code 14) (name "Net-(U1-Pad11)")
      (node (ref U1) (pin 11)))))